<svg width="64" height="64" viewBox="0 0 64 64" fill="none" xmlns="http://www.w3.org/2000/svg">
<path d="M39.48 9.5H12.52C10.0237 9.5 8 11.5237 8 14.02V39.48C8 41.9763 10.0237 44 12.52 44H39.48C41.9763 44 44 41.9763 44 39.48V14.02C44 11.5237 41.9763 9.5 39.48 9.5Z" fill="#EFF6EF"/>
<path d="M39.48 9.5H12.48C11.2916 9.51051 10.1552 9.98861 9.31672 10.8308C8.47825 11.673 8.00521 12.8116 8 14V17H44V14C43.9947 12.8047 43.5162 11.6601 42.6691 10.8168C41.822 9.97345 40.6753 9.49999 39.48 9.5Z" fill="#6848E2"/>
<path d="M44 17H8V18.88H44V17Z" fill="#6848E2" fill-opacity="0.6"/>
<path d="M18.02 8H14.33C13.8827 8 13.52 8.36265 13.52 8.81V11.88C13.52 12.3274 13.8827 12.69 14.33 12.69H18.02C18.4674 12.69 18.83 12.3274 18.83 11.88V8.81C18.83 8.36265 18.4674 8 18.02 8Z" fill="#6848E2"/>
<path d="M37.67 8H33.98C33.5326 8 33.17 8.36265 33.17 8.81V11.88C33.17 12.3274 33.5326 12.69 33.98 12.69H37.67C38.1173 12.69 38.48 12.3274 38.48 11.88V8.81C38.48 8.36265 38.1173 8 37.67 8Z" fill="#6848E2"/>
<path d="M15.67 21.66H13.08C12.6934 21.66 12.38 21.9734 12.38 22.36V24.95C12.38 25.3366 12.6934 25.65 13.08 25.65H15.67C16.0566 25.65 16.37 25.3366 16.37 24.95V22.36C16.37 21.9734 16.0566 21.66 15.67 21.66Z" fill="#6848E2" fill-opacity="0.6"/>
<path d="M21.48 21.66H18.89C18.5034 21.66 18.19 21.9734 18.19 22.36V24.95C18.19 25.3366 18.5034 25.65 18.89 25.65H21.48C21.8666 25.65 22.18 25.3366 22.18 24.95V22.36C22.18 21.9734 21.8666 21.66 21.48 21.66Z" fill="#6848E2" fill-opacity="0.6"/>
<path d="M27.29 21.66H24.7C24.3134 21.66 24 21.9734 24 22.36V24.95C24 25.3366 24.3134 25.65 24.7 25.65H27.29C27.6766 25.65 27.99 25.3366 27.99 24.95V22.36C27.99 21.9734 27.6766 21.66 27.29 21.66Z" fill="#6848E2" fill-opacity="0.6"/>
<path d="M33.11 21.66H30.52C30.1334 21.66 29.82 21.9734 29.82 22.36V24.95C29.82 25.3366 30.1334 25.65 30.52 25.65H33.11C33.4966 25.65 33.81 25.3366 33.81 24.95V22.36C33.81 21.9734 33.4966 21.66 33.11 21.66Z" fill="#6848E2" fill-opacity="0.6"/>
<path d="M38.92 21.66H36.33C35.9434 21.66 35.63 21.9734 35.63 22.36V24.95C35.63 25.3366 35.9434 25.65 36.33 25.65H38.92C39.3066 25.65 39.62 25.3366 39.62 24.95V22.36C39.62 21.9734 39.3066 21.66 38.92 21.66Z" fill="#6848E2" fill-opacity="0.6"/>
<path d="M15.67 27.75H13.08C12.6934 27.75 12.38 28.0634 12.38 28.45V31.04C12.38 31.4266 12.6934 31.74 13.08 31.74H15.67C16.0566 31.74 16.37 31.4266 16.37 31.04V28.45C16.37 28.0634 16.0566 27.75 15.67 27.75Z" fill="#6848E2" fill-opacity="0.6"/>
<path d="M21.48 27.75H18.89C18.5034 27.75 18.19 28.0634 18.19 28.45V31.04C18.19 31.4266 18.5034 31.74 18.89 31.74H21.48C21.8666 31.74 22.18 31.4266 22.18 31.04V28.45C22.18 28.0634 21.8666 27.75 21.48 27.75Z" fill="#6848E2" fill-opacity="0.6"/>
<path d="M27.29 27.75H24.7C24.3134 27.75 24 28.0634 24 28.45V31.04C24 31.4266 24.3134 31.74 24.7 31.74H27.29C27.6766 31.74 27.99 31.4266 27.99 31.04V28.45C27.99 28.0634 27.6766 27.75 27.29 27.75Z" fill="#6848E2" fill-opacity="0.6"/>
<path d="M33.11 27.75H30.52C30.1334 27.75 29.82 28.0634 29.82 28.45V31.04C29.82 31.4266 30.1334 31.74 30.52 31.74H33.11C33.4966 31.74 33.81 31.4266 33.81 31.04V28.45C33.81 28.0634 33.4966 27.75 33.11 27.75Z" fill="#6848E2" fill-opacity="0.6"/>
<path d="M38.92 27.75H36.33C35.9434 27.75 35.63 28.0634 35.63 28.45V31.04C35.63 31.4266 35.9434 31.74 36.33 31.74H38.92C39.3066 31.74 39.62 31.4266 39.62 31.04V28.45C39.62 28.0634 39.3066 27.75 38.92 27.75Z" fill="#6848E2" fill-opacity="0.6"/>
<path d="M15.67 33.85H13.08C12.6934 33.85 12.38 34.1634 12.38 34.55V37.14C12.38 37.5266 12.6934 37.84 13.08 37.84H15.67C16.0566 37.84 16.37 37.5266 16.37 37.14V34.55C16.37 34.1634 16.0566 33.85 15.67 33.85Z" fill="#6848E2" fill-opacity="0.6"/>
<path d="M21.48 33.85H18.89C18.5034 33.85 18.19 34.1634 18.19 34.55V37.14C18.19 37.5266 18.5034 37.84 18.89 37.84H21.48C21.8666 37.84 22.18 37.5266 22.18 37.14V34.55C22.18 34.1634 21.8666 33.85 21.48 33.85Z" fill="#6848E2" fill-opacity="0.6"/>
<path d="M27.29 33.85H24.7C24.3134 33.85 24 34.1634 24 34.55V37.14C24 37.5266 24.3134 37.84 24.7 37.84H27.29C27.6766 37.84 27.99 37.5266 27.99 37.14V34.55C27.99 34.1634 27.6766 33.85 27.29 33.85Z" fill="#6848E2" fill-opacity="0.6"/>
<path d="M33.11 33.85H30.52C30.1334 33.85 29.82 34.1634 29.82 34.55V37.14C29.82 37.5266 30.1334 37.84 30.52 37.84H33.11C33.4966 37.84 33.81 37.5266 33.81 37.14V34.55C33.81 34.1634 33.4966 33.85 33.11 33.85Z" fill="#6848E2"/>
<path d="M38.92 33.85H36.33C35.9434 33.85 35.63 34.1634 35.63 34.55V37.14C35.63 37.5266 35.9434 37.84 36.33 37.84H38.92C39.3066 37.84 39.62 37.5266 39.62 37.14V34.55C39.62 34.1634 39.3066 33.85 38.92 33.85Z" fill="#6848E2" fill-opacity="0.6"/>
<path d="M56 47.31L54.56 46.23C54.3903 46.098 54.2502 45.9319 54.1486 45.7425C54.0469 45.553 53.9861 45.3444 53.97 45.13C53.7574 43.0056 52.7372 41.0439 51.12 39.65L50.28 38.93C49.4432 38.2059 48.4029 37.7586 47.3018 37.6494C46.2006 37.5402 45.0927 37.7744 44.13 38.32L39.13 41.14C39.0164 41.2045 38.886 41.2333 38.7557 41.2226C38.6255 41.2119 38.5016 41.1622 38.4 41.08L31.69 35.59C31.5161 35.4558 31.299 35.3898 31.0798 35.4046C30.8606 35.4193 30.6544 35.5137 30.5 35.67C30.0438 36.1322 29.788 36.7556 29.788 37.405C29.788 38.0544 30.0438 38.6778 30.5 39.14L37.7 46.34C38.1647 46.805 38.4301 47.4327 38.44 48.09V49.26C38.4553 50.2829 38.8306 51.2677 39.5 52.0413C40.1693 52.8149 41.0899 53.3278 42.1 53.49L44.64 53.89C45.0216 53.9546 45.3723 54.1404 45.64 54.42L47.31 56C49.6147 56 51.8251 55.0844 53.4548 53.4548C55.0844 51.8251 56 49.6147 56 47.31Z" fill="#6848E2"/>
<path d="M35.93 44.53L30.54 39.14L35.93 44.53Z" fill="#EFF6EF"/>
<path d="M45.5 54.19H45.51L45.5 54.18V54.19Z" fill="#6848E2" fill-opacity="0.6"/>
</svg>
